{
    "KPlugin": {
        "Authors": [
            {
                "Name": "Tobias Leupold",
                "Email": "tl at stonemx dot de"
            }
        ],
        "Category": "Utilities",
        "Name": "Mouse Toggler",
        "Description": "Show the current right- or left-handed state of the mouse and toggle it",
        "Id": "org.kde.plasma.mousetoggler",
        "Icon": "input-mouse-click-left",
        "ServiceTypes": [
            "Plasma/Applet"
        ],
        "License": "GPL-3.0+",
        "Version": "0.1.0",
        "Website": "https://invent.kde.org/tleupold/mousetoggler"
    },
    "X-Plasma-API": "declarativeappletscript",
    "X-Plasma-MainScript": "ui/main.qml"
}
